{"name":"getUsersFail","id":"SerenityInitialTest:getUsersFail","testCaseName":"SerenityInitialTest","testSteps":[{"number":1,"description":"freddy the trainer executes a GET on the resource /users?page\u003d2","duration":6662,"startTime":"2020-07-05T12:49:34.346-04:00[America/Santiago]","result":"SUCCESS","precondition":false,"level":0,"children":[{"number":2,"description":"GET https://reqres.in/api/users?page\u003d2%2Fusers%3Fpage%3D2\r","duration":3,"startTime":"2020-07-05T12:49:41.001-04:00[America/Santiago]","result":"SUCCESS","restQuery":{"method":"GET","path":"https://reqres.in/api/users?page\u003d2%2Fusers%3Fpage%3D2\r","content":"\r","contentType":"null","requestHeaders":"Accept\u003d*/*\r","requestCookies":"\r","responseHeaders":"Date: Sun, 05 Jul 2020 16:49:40 GMT\r\nContent-Type: application/json; charset\u003dutf-8\r\nTransfer-Encoding: chunked\r\nConnection: keep-alive\r\nSet-Cookie: __cfduid\u003dd6675a2b8111c7e7afde3e9a10b7577e41593967780; expires\u003dTue, 04-Aug-20 16:49:40 GMT; path\u003d/; domain\u003d.reqres.in; HttpOnly; SameSite\u003dLax; Secure\r\nX-Powered-By: Express\r\nAccess-Control-Allow-Origin: *\r\nEtag: W/\"4dd-IPv5LdOOb6s5S9E3i59wBCJ1k/0\"\r\nVia: 1.1 vegur\r\nCache-Control: max-age\u003d14400\r\nCF-Cache-Status: HIT\r\nAge: 5372\r\ncf-request-id: 03c17b3b9d0000d2b82f293200000001\r\nExpect-CT: max-age\u003d604800, report-uri\u003d\"https://report-uri.cloudflare.com/cdn-cgi/beacon/expect-ct\"\r\nVary: Accept-Encoding\r\nServer: cloudflare\r\nCF-RAY: 5ae294a5cbf8d2b8-EZE\r\nContent-Encoding: gzip\r","responseCookies":"__cfduid\u003dd6675a2b8111c7e7afde3e9a10b7577e41593967780;Path\u003d/;Domain\u003d.reqres.in;Secure;HttpOnly;Expires\u003d04-08-20 16:49\r","responseBody":"{\n    \"page\": 2,\n    \"per_page\": 6,\n    \"total\": 12,\n    \"total_pages\": 2,\n    \"data\": [\n        {\n            \"id\": 7,\n            \"email\": \"michael.lawson@reqres.in\",\n            \"first_name\": \"Michael\",\n            \"last_name\": \"Lawson\",\n            \"avatar\": \"https://s3.amazonaws.com/uifaces/faces/twitter/follettkyle/128.jpg\"\n        },\n        {\n            \"id\": 8,\n            \"email\": \"lindsay.ferguson@reqres.in\",\n            \"first_name\": \"Lindsay\",\n            \"last_name\": \"Ferguson\",\n            \"avatar\": \"https://s3.amazonaws.com/uifaces/faces/twitter/araa3185/128.jpg\"\n        },\n        {\n            \"id\": 9,\n            \"email\": \"tobias.funke@reqres.in\",\n            \"first_name\": \"Tobias\",\n            \"last_name\": \"Funke\",\n            \"avatar\": \"https://s3.amazonaws.com/uifaces/faces/twitter/vivekprvr/128.jpg\"\n        },\n        {\n            \"id\": 10,\n            \"email\": \"byron.fields@reqres.in\",\n            \"first_name\": \"Byron\",\n            \"last_name\": \"Fields\",\n            \"avatar\": \"https://s3.amazonaws.com/uifaces/faces/twitter/russoedu/128.jpg\"\n        },\n        {\n            \"id\": 11,\n            \"email\": \"george.edwards@reqres.in\",\n            \"first_name\": \"George\",\n            \"last_name\": \"Edwards\",\n            \"avatar\": \"https://s3.amazonaws.com/uifaces/faces/twitter/mrmoiree/128.jpg\"\n        },\n        {\n            \"id\": 12,\n            \"email\": \"rachel.howell@reqres.in\",\n            \"first_name\": \"Rachel\",\n            \"last_name\": \"Howell\",\n            \"avatar\": \"https://s3.amazonaws.com/uifaces/faces/twitter/hebertialmeida/128.jpg\"\n        }\n    ],\n    \"ad\": {\n        \"company\": \"StatusCode Weekly\",\n        \"url\": \"http://statuscode.org/\",\n        \"text\": \"A weekly newsletter focusing on software development, infrastructure, the server, performance, and the stack end of things.\"\n    }\n}","statusCode":200},"precondition":false,"level":1}]}],"userStory":{"id":"SerenityInitialTest","storyName":"Serenity initial test","storyClassName":"SerenityInitialTest","path":"","type":"story"},"featureTag":{"name":"Serenity initial test","type":"story","displayName":"Serenity initial test"},"title":"Get users fail","tags":[{"name":"Serenity initial test","type":"story","displayName":"Serenity initial test"}],"startTime":"2020-07-05T12:49:33.875-04:00[America/Santiago]","duration":7421,"testFailureCause":{"errorType":"org.junit.ComparisonFailure","message":"expected:\u003c[4]00\u003e but was:\u003c[2]00\u003e","stackTrace":[{"declaringClass":"SerenityInitialTest","methodName":"getUsersFail","fileName":"SerenityInitialTest.java","lineNumber":31},{"declaringClass":"org.eclipse.jdt.internal.junit4.runner.JUnit4TestReference","methodName":"run","fileName":"JUnit4TestReference.java","lineNumber":89},{"declaringClass":"org.eclipse.jdt.internal.junit.runner.TestExecution","methodName":"run","fileName":"TestExecution.java","lineNumber":41},{"declaringClass":"org.eclipse.jdt.internal.junit.runner.RemoteTestRunner","methodName":"runTests","fileName":"RemoteTestRunner.java","lineNumber":542},{"declaringClass":"org.eclipse.jdt.internal.junit.runner.RemoteTestRunner","methodName":"runTests","fileName":"RemoteTestRunner.java","lineNumber":770},{"declaringClass":"org.eclipse.jdt.internal.junit.runner.RemoteTestRunner","methodName":"run","fileName":"RemoteTestRunner.java","lineNumber":464},{"declaringClass":"org.eclipse.jdt.internal.junit.runner.RemoteTestRunner","methodName":"main","fileName":"RemoteTestRunner.java","lineNumber":210}]},"testFailureClassname":"org.junit.ComparisonFailure","testFailureMessage":"expected:\u003c[4]00\u003e but was:\u003c[2]00\u003e","testFailureSummary":"FAILURE;org.junit.ComparisonFailure;expected:\u003c[4]00\u003e but was:\u003c[2]00\u003e;SerenityInitialTest.java","projectKey":"","annotatedResult":"FAILURE","manual":false,"testSource":"JUnit","actors":[{"name":"freddy the trainer","can":["call an API at https://reqres.in/api/users?page\u003d2"]}],"result":"FAILURE"}